<?xml version="1.0" encoding="utf-8"?>
<!-- Generator: Adobe Illustrator 14.0.0, SVG Export Plug-In . SVG Version: 6.00 Build 43363)  -->
<!DOCTYPE svg PUBLIC "-//W3C//DTD SVG 1.1//EN" "http://www.w3.org/Graphics/SVG/1.1/DTD/svg11.dtd">
<svg version="1.1" id="polygon_1_" xmlns="http://www.w3.org/2000/svg" xmlns:xlink="http://www.w3.org/1999/xlink" x="0px" y="0px"
	 width="52.176px" height="45.201px" viewBox="0 0 52.176 45.201" style="enable-background:new 0 0 52.176 45.201;"
	 xml:space="preserve">
<style type="text/css">
<![CDATA[
	.st0{fill-rule:evenodd;clip-rule:evenodd;fill:#B32427;}
	.st1{fill-rule:evenodd;clip-rule:evenodd;fill:#F1494C;}
	.st2{fill-rule:evenodd;clip-rule:evenodd;fill:#F86265;}
	.st3{fill-rule:evenodd;clip-rule:evenodd;fill:#C92F32;}
	.st4{fill-rule:evenodd;clip-rule:evenodd;fill:#9B1A1C;}
]]>
</style>
<g id="Shape_49">
	<g>
		<polygon class="st3" points="28.232,0.443 41.098,33.072 49.013,5.393 		"/>
	</g>
</g>
<g id="Shape_50">
	<g>
		<polygon class="st0" points="28.617,0 10.449,42.028 41.854,32.937 		"/>
	</g>
</g>
<g id="Shape_51">
	<g>
		<polygon class="st4" points="0,10.723 10.752,42.161 28.679,0.342 		"/>
	</g>
</g>
<g id="Shape_52">
	<g>
		<polygon class="st1" points="41.323,32.763 11.226,41.986 50.721,45.201 		"/>
	</g>
</g>
<g id="Shape_53">
	<g>
		<polygon class="st2" points="48.666,5.006 41.381,32.654 50.881,44.879 		"/>
	</g>
</g>
</svg>
