<?xml version="1.0" encoding="utf-8"?>
<!-- Generator: Adobe Illustrator 14.0.0, SVG Export Plug-In . SVG Version: 6.00 Build 43363)  -->
<!DOCTYPE svg PUBLIC "-//W3C//DTD SVG 1.1//EN" "http://www.w3.org/Graphics/SVG/1.1/DTD/svg11.dtd">
<svg version="1.1" id="polygon_1_" xmlns="http://www.w3.org/2000/svg" xmlns:xlink="http://www.w3.org/1999/xlink" x="0px" y="0px"
	 width="47px" height="52px" viewBox="0 0 47 52" style="enable-background:new 0 0 47 52;" xml:space="preserve">
<style type="text/css">
<![CDATA[
	.st0{fill-rule:evenodd;clip-rule:evenodd;fill:#B32427;}
	.st1{fill-rule:evenodd;clip-rule:evenodd;fill:#F1494C;}
	.st2{fill-rule:evenodd;clip-rule:evenodd;fill:#F86265;}
	.st3{fill-rule:evenodd;clip-rule:evenodd;fill:#C92F32;}
	.st4{fill-rule:evenodd;clip-rule:evenodd;fill:#9B1A1C;}
]]>
</style>
<g id="Shape_49">
	<g>
		<polygon class="st3" points="13.043,41.439 40.723,49.355 45.672,28.574 		"/>
	</g>
</g>
<g id="Shape_50">
	<g>
		<polygon class="st0" points="4.088,10.791 13.178,42.195 46.115,28.959 		"/>
	</g>
</g>
<g id="Shape_51">
	<g>
		<polygon class="st4" points="35.393,0.342 3.955,11.094 45.773,29.021 		"/>
	</g>
</g>
<g id="Shape_52">
	<g>
		<polygon class="st1" points="4.13,11.567 0.914,51.063 13.352,41.665 		"/>
	</g>
</g>
<g id="Shape_53">
	<g>
		<polygon class="st2" points="13.461,41.723 1.236,51.224 41.109,49.008 		"/>
	</g>
</g>
</svg>
