<?xml version="1.0" encoding="utf-8"?>
<!-- Generator: Adobe Illustrator 14.0.0, SVG Export Plug-In . SVG Version: 6.00 Build 43363)  -->
<!DOCTYPE svg PUBLIC "-//W3C//DTD SVG 1.1//EN" "http://www.w3.org/Graphics/SVG/1.1/DTD/svg11.dtd">
<svg version="1.1" id="polygon_1_" xmlns="http://www.w3.org/2000/svg" xmlns:xlink="http://www.w3.org/1999/xlink" x="0px" y="0px"
	 width="45px" height="80px" viewBox="0 0 45 80" style="enable-background:new 0 0 45 80;" xml:space="preserve">
<style type="text/css">
<![CDATA[
	.st0{fill-rule:evenodd;clip-rule:evenodd;fill:#B32427;}
	.st1{fill-rule:evenodd;clip-rule:evenodd;fill:#F1494C;}
	.st2{fill-rule:evenodd;clip-rule:evenodd;fill:#C92F32;}
	.st3{fill-rule:evenodd;clip-rule:evenodd;fill:#9B1A1C;}
]]>
</style>
<g id="Shape_25">
	<g>
		<polygon class="st0" points="37.441,3.273 20.369,22.199 44.227,26.244 		"/>
	</g>
</g>
<g id="Shape_26">
	<g>
		<polygon class="st2" points="20.082,21.6 42.588,79.568 44.166,25.385 		"/>
	</g>
</g>
<g id="Shape_27">
	<g>
		<polygon class="st3" points="13.086,0.07 20.838,22.318 37.979,3.166 		"/>
	</g>
</g>
<g id="Shape_28">
	<g>
		<polygon class="st2" points="13.889,0.244 0.041,35.244 20.727,22.104 		"/>
	</g>
</g>
<g id="Shape_29">
	<g>
		<polygon class="st1" points="20.496,22.072 0.588,34.834 42.494,79.008 		"/>
	</g>
</g>
</svg>
