<?xml version="1.0" encoding="utf-8"?>
<!-- Generator: Adobe Illustrator 14.0.0, SVG Export Plug-In . SVG Version: 6.00 Build 43363)  -->
<!DOCTYPE svg PUBLIC "-//W3C//DTD SVG 1.1//EN" "http://www.w3.org/Graphics/SVG/1.1/DTD/svg11.dtd">
<svg version="1.1" id="polygon_1_" xmlns="http://www.w3.org/2000/svg" xmlns:xlink="http://www.w3.org/1999/xlink" x="0px" y="0px"
	 width="85.821px" height="132.261px" viewBox="17.921 -13.033 85.821 132.261"
	 style="enable-background:new 17.921 -13.033 85.821 132.261;" xml:space="preserve">
<style type="text/css">
<![CDATA[
	.st0{fill:#B32427;}
	.st1{fill:#F1494C;}
	.st2{fill:#F86265;}
	.st3{fill:#C92F32;}
	.st4{fill:#9B1A1C;}
	.st5{display:inline;}
	.st6{display:none;}
]]>
</style>
<g id="Shape_54">
	<g>
		<polygon class="st3" points="65.918,-5.944 65.073,90.712 95.798,16.852 		"/>
	</g>
</g>
<g id="Shape_61">
	<g>
		<polygon class="st4" points="45.733,-13.033 17.822,19.337 67.105,-5.359 		"/>
	</g>
</g>
<g id="Shape_58">
	<g>
		<polygon class="st1" points="64.479,91.922 103.742,81.229 95.506,17.337 		"/>
	</g>
</g>
<g id="Shape_60">
	<g>
		<polygon class="st2" points="64.763,91.294 53.893,119.228 103.247,81.217 		"/>
	</g>
</g>
<g id="Shape_55">
	<g>
		<polygon class="st0" points="17.921,19.146 65.042,92.233 66.358,-5.314 		"/>
	</g>
</g>
<g id="Shape_59">
	<g>
		<polygon class="st3" points="25.823,102.441 65.289,91.667 17.918,18.93 		"/>
	</g>
</g>
<g id="Shape_56">
	<g>
		<polygon class="st1" points="26.322,101.849 53.792,119.63 65.054,91.123 		"/>
	</g>
</g>
<g id="Shape_57" class="st6">
	<g class="st5">
		<rect x="-22.604" y="-22.666" class="st4" width="156" height="153"/>
	</g>
</g>
</svg>
